"X","permutations","permutations.error","nullmodel_permutations","nullmodel_permutations.error","jointly_direction","jointly_direction.error","jointly_distr_direction","jointly_distr_direction.error","nullmodel_permutations_jointly_direction","nullmodel_permutations_jointly_direction.error","nullmodel_permutations_jointly_distr_direction","nullmodel_permutations_jointly_distr_direction.error"
"CpG_sensitivity_tpr"," 0.8732394","0.00000000000"," 0.8732394","0.00197951653"," 0.9061033","0.000000000000"," 0.8951487","0.013606926522"," 0.9061033","0.000000000000"," 0.8951487","0.013606926522"
"CpG_specificity_tnr"," 0.9995555","0.00007344812"," 0.9995480","0.00007231829"," 0.9995156","0.000006317306"," 0.9995705","0.000006317306"," 0.9995156","0.000006317306"," 0.9995705","0.000006317306"
"CpG_fdr"," 0.2418478","0.02778112291"," 0.2449256","0.02738567357"," 0.2509702","0.002470550257"," 0.2311828","0.003384063246"," 0.2509702","0.002470550257"," 0.2311828","0.003384063246"
"Region_sensitivity_tpr"," 0.7777778","0.00000000000"," 0.7777778","0.01171213948"," 0.8055556","0.000000000000"," 0.8333333","0.013417941432"," 0.8055556","0.000000000000"," 0.8333333","0.013417941432"
"Region_fdr"," 0.6000000","0.03647331431"," 0.6056338","0.03601728364"," 0.6133333","0.004466657030"," 0.5714286","0.005908860242"," 0.6133333","0.004466657030"," 0.5714286","0.005908860242"
"Bumps","70.0000000","           NA","71.0000000","           NA","75.0000000","            NA","70.0000000","            NA","75.0000000","            NA","70.0000000","            NA"
"Candidates","42.0000000","           NA","43.0000000","           NA","46.0000000","            NA","40.0000000","            NA","46.0000000","            NA","40.0000000","            NA"
"Intersecting with known","28.0000000","           NA","28.0000000","           NA","29.0000000","            NA","30.0000000","            NA","29.0000000","            NA","30.0000000","            NA"
"Regions verified","27.0000000","           NA","27.0000000","           NA","28.0000000","            NA","29.0000000","            NA","28.0000000","            NA","29.0000000","            NA"
