\relax 
\citation{reik_genomic_2001}
\citation{morison_census_2005}
\citation{raissig_regulation_2011}
\citation{nicholls_genetic_1989}
\citation{weksberg_disruption_1993}
\citation{buiting_inherited_1995}
\citation{curley_coadaptation_2004}
\citation{germain-lee_mouse_2005}
\citation{schaller_single_2010}
\citation{plagge_imprinted_2004}
\citation{ball_gene_2013}
\citation{curley_coadaptation_2004}
\citation{plagge_imprinted_2004}
\citation{schaller_single_2010}
\citation{bassett_evidence_2002}
\citation{lamb_analysis_2005}
\citation{hogart_15q11-13_2007}
\citation{francks_parent--origin_2003}
\citation{cichon_genome_2001}
\citation{kong_parental_2009}
\citation{moore_genomic_1991}
\citation{moore_genomic_1991}
\citation{surani_inheritance_1993}
\citation{barlow_genomic_2011}
\citation{reik_genomic_2001}
\citation{delaval_epigenetic_2004}
\citation{mann_imprinting_2001}
\citation{henckel_genome-wide_2010}
\citation{mann_imprinting_2001}
\citation{henckel_genome-wide_2010}
\newlabel{^_1}{{}{1}}
\@writefile{toc}{\contentsline {section}{\numberline {1}Introduction}{1}}
\citation{deltour_tissue-_1995}
\citation{smith_identification_2003}
\citation{dockery_differential_2009}
\citation{hiura_tripartite_2010}
\citation{jaffe_bump_2012}
\citation{choufani_novel_2011}
\@writefile{toc}{\contentsline {section}{\numberline {2}Approach}{2}}
\@writefile{toc}{\contentsline {subsection}{\numberline {{2.1}}Problem formulation}{2}}
\@writefile{toc}{\contentsline {subsection}{\numberline {{2.2}}Proposed approach}{2}}
\@writefile{lof}{\contentsline {figure}{\numberline {1}{\ignorespaces Methylation pattern in imprinted regions.\relax }}{2}}
\providecommand*\caption@xref[2]{\@setref\relax\@undefined{#1}}
\newlabel{fig:explanation_imprinting}{{1}{2}}
\@writefile{toc}{\contentsline {subsection}{\numberline {{2.3}}Data}{2}}
\citation{jaffe_bump_2012}
\@writefile{lof}{\contentsline {figure}{\numberline {3}{\ignorespaces Methylation in imprinted region KvDMR imprinted region on chromosome 11. The curves show smoothed mean methylation value for each samples type. KvDMR matches the pattern of maternally imprinted region. There is a positive bump in maternal samples (marked in red) and negative bump in paternal samples (blue, including AnCHM samples). Methylation in controls (green) is close to 50\% boundary (black line). Multi-bump region detected by multi-target bump hunting is marked in gray.\relax }}{3}}
\@writefile{toc}{\contentsline {section}{\numberline {3}Methods}{3}}
\citation{jaffe_bump_2012}
\@writefile{lof}{\contentsline {figure}{\numberline {2}{\ignorespaces Methylation values of CpGs located in known regions. Maternally and paternally imprinted regions are marked in dark-green and yellow respectively.\relax }}{4}}
\newlabel{fig:methylation_in_known_regions}{{2}{4}}
\@writefile{toc}{\contentsline {subsection}{\numberline {{3.1}}Bump hunting}{4}}
\newlabel{sec:original}{{{3.1}}{4}}
\newlabel{eq:beta}{{1}{4}}
\newlabel{eq:pvalue_one}{{2}{4}}
\@writefile{toc}{\contentsline {subsection}{\numberline {{3.2}}Applying bump hunting to imprinted region search}{4}}
\newlabel{bump_hunting_for_imprint}{{{3.2}}{4}}
\@writefile{lof}{\contentsline {figure}{\numberline {4}{\ignorespaces The pipeline of our approach. The input data are highlighted in blue. Data is divided into training and test sets by chromosome. During training, we compose empirical distributions of methylation values from known imprinted regions in the training set. During the test stage, we run multi-target bump hunting on chromosomes in the test set to get a set of regions that are differentially methylated between uniparental samples and controls. Next, we use distributions from the training to compute posterior probability of each class. The class with maximum posterior probability is assigned to the region.\relax }}{5}}
\newlabel{fig:pipeline}{{4}{5}}
\@writefile{toc}{\contentsline {subsection}{\numberline {{3.3}}Multi-target bump hunting}{5}}
\newlabel{sec:multitarget}{{{3.3}}{5}}
\@writefile{toc}{\contentsline {subsubsection}{\numberline {{{3.3}.1}}Multiple case types}{5}}
\newlabel{eq:beta_multi}{{3}{6}}
\@writefile{toc}{\contentsline {subsubsection}{\numberline {{{3.3}.2}}Filtering by bump directions}{6}}
\@writefile{toc}{\contentsline {subsubsection}{\numberline {{{3.3}.3}}Constraints on controls in regions of interest}{6}}
\newlabel{controls_as_null}{{{{3.3}.4}}{6}}
\@writefile{toc}{\contentsline {subsubsection}{\numberline {{{3.3}.4}}Leveraging controls in null model}{6}}
\@writefile{lof}{\contentsline {figure}{\numberline {5}{\ignorespaces The distribution of methylation values in normal tissues in imprinted and non-imprinted regions. The estimated distribution of beta values in imprinted regions is used to filter the imprinted region candidates.\relax }}{6}}
\newlabel{fig:control_distr}{{5}{6}}
\@writefile{lof}{\contentsline {figure}{\numberline {6}{\ignorespaces The distributions of KS statistics for imprinted and non-imprinted regions. KS statistics is computed between distribution $D_{known}$ and methylation values in blood controls per CpG. The threshold is set to the value where density functions of the distibutions overlap.\relax }}{6}}
\newlabel{fig:ks_threshold}{{6}{6}}
\@writefile{toc}{\contentsline {subsubsection}{\numberline {{{3.3}.5}}Computing p-values}{7}}
\@writefile{toc}{\contentsline {subsection}{\numberline {{3.4}}Postprocessing}{7}}
\newlabel{sec:postprocessing}{{{3.4}}{7}}
\newlabel{sec:threshold_based}{{{{3.4}.1}}{7}}
\@writefile{toc}{\contentsline {subsubsection}{\numberline {{{3.4}.1}}Threshold-based bump filtering}{7}}
\@writefile{toc}{\contentsline {subsection}{\numberline {{3.5}}Graphical model}{7}}
\citation{court_genome-wide_2014}
\citation{court_genome-wide_2014}
\citation{court_genome-wide_2014}
\citation{court_genome-wide_2014}
\citation{court_genome-wide_2014}
\citation{court_genome-wide_2014}
\@writefile{lof}{\contentsline {figure}{\numberline {7}{\ignorespaces The graphical model for region classification. The outer frame encompasses nodes per region type: either maternally or paternally imprinted or not imprinted. The inner frame contains the nodes per 4 data types. Paternal tissues share the parameters $\theta $ for theoretical distributions.\relax }}{8}}
\newlabel{fig:graphical_model}{{7}{8}}
\@writefile{lot}{\contentsline {table}{\numberline {1}{\ignorespaces Type of theoretical distributions $D_t$ for each class and data type.\relax }}{8}}
\newlabel{tab:theoretical_distr}{{1}{8}}
\newlabel{}{{1}{8}}
\@writefile{toc}{\contentsline {subsubsection}{\numberline {{{3.5}.1}}Avoiding AnCHM biases}{8}}
\@writefile{toc}{\contentsline {subsubsection}{\numberline {{{3.5}.2}}Determining type of imprinted region}{8}}
\@writefile{toc}{\contentsline {subsection}{\numberline {{3.6}}Measuring accuracy}{8}}
\newlabel{fig:empirical_distributions}{{\caption@xref {fig:empirical_distributions}{ on input line 418}}{9}}
\newlabel{sub@fig:empirical_distributions}{{}{9}}
\newlabel{fig:empirical_distributions_with_priors}{{\caption@xref {fig:empirical_distributions_with_priors}{ on input line 424}}{9}}
\newlabel{sub@fig:empirical_distributions_with_priors}{{a}{9}}
\@writefile{lof}{\contentsline {figure}{\numberline {8}{\ignorespaces Distributions $D_e$ and $D_m$. Distribution $D_e$ is estimated from methylation values in known imprinted regions for each sample type. In distribution $D_m$, values from $D_e$ are mixed with samples from corresponding theoretical distribution $D_t$. Distributions from biparental samples are colored as yellow, maternal as red and paternal as blue.\relax }}{9}}
\newlabel{fig:distributions}{{8}{9}}
\@writefile{lot}{\contentsline {table}{\numberline {2}{\ignorespaces Notations of imprinted regions used in current paper. \relax }}{9}}
\newlabel{tab:region_explanation}{{2}{9}}
\@writefile{toc}{\contentsline {subsection}{\numberline {{3.7}}Parameter search}{9}}
\newlabel{sec:Param_search}{{{3.7}}{9}}
\@writefile{toc}{\contentsline {section}{\numberline {4}Results}{10}}
\@writefile{toc}{\contentsline {subsection}{\numberline {{4.1}}Multi-target bump hunting}{10}}
\newlabel{sec:results_multi_target}{{{4.1}}{10}}
\@writefile{toc}{\contentsline {subsubsection}{\numberline {{{4.1}.1}}Joint search in cases of multiple types}{10}}
\@writefile{toc}{\contentsline {subsubsection}{\numberline {{{4.1}.2}}Constraints on controls}{10}}
\@writefile{toc}{\contentsline {subsubsection}{\numberline {{{4.1}.3}}Control-based null model}{10}}
\@writefile{lof}{\contentsline {figure}{\numberline {9}{\ignorespaces Distribution of bump p-values computed through different nullmodels: case-based (adapted from original bump hunting) and control-based (used in our multi-target approach).\relax }}{10}}
\newlabel{fig:bump_p_values_nullmodel}{{9}{10}}
\@writefile{toc}{\contentsline {subsection}{\numberline {{4.2}}DMR postprocessing}{10}}
\citation{court_genome-wide_2014}
\citation{weaver_imprinting_2009}
\citation{choufani_novel_2011}
\@writefile{lot}{\contentsline {table}{\numberline {3}{\ignorespaces Experimental results of different modifications of bump hunting.\relax }}{11}}
\newlabel{tab:model_results}{{3}{11}}
\@writefile{toc}{\contentsline {subsection}{\numberline {{4.3}}Verification of known imprinted regions}{11}}
\newlabel{sec:known_region_results}{{{4.3}}{11}}
\@writefile{toc}{\contentsline {subsection}{\numberline {{4.4}}Candidates}{11}}
\newlabel{sec:candidates_results}{{{4.4}}{11}}
\@writefile{lot}{\contentsline {table}{\numberline {4}{\ignorespaces Performance comparison of graphical model and threshold-based approaches.\relax }}{11}}
\newlabel{tab:model_comparison}{{4}{11}}
\citation{martin-trujillo_genotype_2011}
\citation{nakabayashi_methylation_2011}
\citation{rodriguez-santiago_knockout_2007}
\citation{sudo_protein_2004}
\citation{tanwar_gremlin_2014}
\citation{de_bruin_severe_2016}
\citation{ogawa_extracellular_2014}
\@writefile{lot}{\contentsline {table}{\numberline {5}{\ignorespaces The fraction of the CpGs in known imprinted DMRs predicted by graphical model as imprinted. The regions are sorted by length.\relax }}{12}}
\newlabel{tab:known_regions_coverage}{{5}{12}}
\@writefile{lot}{\contentsline {table}{\numberline {6}{\ignorespaces The fraction of the CpGs in putative imprinted DMRs predicted by graphical model as imprinted. The regions are sorted by length.\relax }}{12}}
\newlabel{tab:putative_regions_coverage}{{6}{12}}
\citation{bosch_nr2f1_2014}
\citation{paliwal_comparative_2013}
\citation{romanelli_variable_2014}
\citation{treppendahl_allelic_2012}
\citation{cao_dna_2013}
\citation{silver_independent_2015}
\citation{de_los_santos_small_2000}
\citation{leung_imprinting_2009}
\citation{runte_ic-snurfsnrpn_2001}
\citation{leung_imprinting_2009}
\citation{smith_deletion_2009}
\citation{court_genome-wide_2014}
\citation{choufani_novel_2011}
\@writefile{toc}{\contentsline {section}{\numberline {5}Discussion}{13}}
\@writefile{toc}{\contentsline {subsection}{\numberline {{5.1}}Advantages of region-based approach}{13}}
\@writefile{toc}{\contentsline {subsection}{\numberline {{5.2}}Relation to the previous study}{13}}
\newlabel{sec:previous_study}{{{5.2}}{13}}
\@writefile{toc}{\contentsline {subsection}{\numberline {{5.3}}Challenges}{13}}
\citation{mann_imprinting_2001}
\citation{henckel_genome-wide_2010}
\@writefile{lof}{\contentsline {figure}{\numberline {10}{\ignorespaces Genomic locations of candidates detected by multi-target bump hunting (marked in red and blue). Locations of known and putative (suggested by previous study) regions are given for reference.\relax }}{14}}
\newlabel{fig:best_candidates_location}{{10}{14}}
\citation{meissner_reduced_2005}
\bibstyle{plain}
\bibdata{document.bib}
\bibcite{ball_gene_2013}{{1}{}{{}}{{}}}
\bibcite{barlow_genomic_2011}{{2}{}{{}}{{}}}
\bibcite{bassett_evidence_2002}{{3}{}{{}}{{}}}
\@writefile{lot}{\contentsline {table}{\numberline {7}{\ignorespaces The new imprinted region candidates predicted by multi-target bump hunting and graphical model. Only the regions found in $\geqslant $ 3 tissues are shown. Regions are sorted by methylation in controls (difference from 0.5). \relax }}{15}}
\newlabel{tab:best_candidates_list}{{7}{15}}
\@writefile{toc}{\contentsline {subsection}{\numberline {{5.4}}Future directions}{15}}
\bibcite{bosch_nr2f1_2014}{{4}{}{{}}{{}}}
\bibcite{buiting_inherited_1995}{{5}{}{{}}{{}}}
\bibcite{cao_dna_2013}{{6}{}{{}}{{}}}
\bibcite{choufani_novel_2011}{{7}{}{{}}{{}}}
\bibcite{cichon_genome_2001}{{8}{}{{}}{{}}}
\bibcite{court_genome-wide_2014}{{9}{}{{}}{{}}}
\bibcite{curley_coadaptation_2004}{{10}{}{{}}{{}}}
\bibcite{de_bruin_severe_2016}{{11}{}{{}}{{}}}
\bibcite{de_los_santos_small_2000}{{12}{}{{}}{{}}}
\bibcite{delaval_epigenetic_2004}{{13}{}{{}}{{}}}
\bibcite{deltour_tissue-_1995}{{14}{}{{}}{{}}}
\bibcite{dockery_differential_2009}{{15}{}{{}}{{}}}
\bibcite{francks_parent--origin_2003}{{16}{}{{}}{{}}}
\bibcite{germain-lee_mouse_2005}{{17}{}{{}}{{}}}
\newlabel{fig:top_450k}{{11a}{16}}
\newlabel{sub@fig:top_450k}{{a}{16}}
\newlabel{fig:top_RRBS}{{11b}{16}}
\newlabel{sub@fig:top_RRBS}{{b}{16}}
\@writefile{lof}{\contentsline {figure}{\numberline {11}{\ignorespaces Boxplots of the methylaiton values in the best DMR candidate detected by multi-target bump hunting. The region overlaps with promoter of TRPC3 gene and located on chr4 (122853463-122853966). The results are shown from two technologies: Illumina HumanMethylation 450k and Reduced Representation Bisulfite Sequencing (RRBS).\relax }}{16}}
\newlabel{fig:top_candidate}{{11}{16}}
\bibcite{henckel_genome-wide_2010}{{18}{}{{}}{{}}}
\bibcite{hiura_tripartite_2010}{{19}{}{{}}{{}}}
\bibcite{hogart_15q11-13_2007}{{20}{}{{}}{{}}}
\bibcite{jaffe_bump_2012}{{21}{}{{}}{{}}}
\bibcite{kong_parental_2009}{{22}{}{{}}{{}}}
\bibcite{lamb_analysis_2005}{{23}{}{{}}{{}}}
\bibcite{leung_imprinting_2009}{{24}{}{{}}{{}}}
\bibcite{mann_imprinting_2001}{{25}{}{{}}{{}}}
\bibcite{martin-trujillo_genotype_2011}{{26}{}{{}}{{}}}
\bibcite{meissner_reduced_2005}{{27}{}{{}}{{}}}
\bibcite{moore_genomic_1991}{{28}{}{{}}{{}}}
\bibcite{morison_census_2005}{{29}{}{{}}{{}}}
\bibcite{nakabayashi_methylation_2011}{{30}{}{{}}{{}}}
\bibcite{nicholls_genetic_1989}{{31}{}{{}}{{}}}
\bibcite{ogawa_extracellular_2014}{{32}{}{{}}{{}}}
\bibcite{paliwal_comparative_2013}{{33}{}{{}}{{}}}
\bibcite{plagge_imprinted_2004}{{34}{}{{}}{{}}}
\bibcite{raissig_regulation_2011}{{35}{}{{}}{{}}}
\bibcite{reik_genomic_2001}{{36}{}{{}}{{}}}
\bibcite{rodriguez-santiago_knockout_2007}{{37}{}{{}}{{}}}
\bibcite{romanelli_variable_2014}{{38}{}{{}}{{}}}
\bibcite{runte_ic-snurfsnrpn_2001}{{39}{}{{}}{{}}}
\bibcite{schaller_single_2010}{{40}{}{{}}{{}}}
\bibcite{silver_independent_2015}{{41}{}{{}}{{}}}
\bibcite{smith_deletion_2009}{{42}{}{{}}{{}}}
\bibcite{smith_identification_2003}{{43}{}{{}}{{}}}
\bibcite{sudo_protein_2004}{{44}{}{{}}{{}}}
\bibcite{surani_inheritance_1993}{{45}{}{{}}{{}}}
\bibcite{tanwar_gremlin_2014}{{46}{}{{}}{{}}}
\bibcite{treppendahl_allelic_2012}{{47}{}{{}}{{}}}
\bibcite{weaver_imprinting_2009}{{48}{}{{}}{{}}}
\bibcite{weksberg_disruption_1993}{{49}{}{{}}{{}}}
\global\@namedef{@lastpage@}{17}
\global\NAT@numberstrue
