\relax 
\global\@namedef{@lastpage@}{1}
\@writefile{toc}{\contentsline {section}{\numberline {1}Methods}{1}}
\@writefile{toc}{\contentsline {subsection}{\numberline {{1.1}}Bump hunting algorithm}{1}}
\newlabel{sec:original}{{{1.1}}{1}}
\@writefile{toc}{\contentsline {subsection}{\numberline {{1.2}}Multi-target bump hunting}{1}}
\newlabel{sec:multitarget}{{{1.2}}{1}}
\@writefile{toc}{\contentsline {subsubsection}{\numberline {{{1.2}.1}}Multiple covariates of interest}{1}}
\@writefile{toc}{\contentsline {subsubsection}{\numberline {{{1.2}.2}}Filtering by bump directions}{1}}
\@writefile{toc}{\contentsline {subsubsection}{\numberline {{{1.2}.3}}Constraints on controls in regions of interest}{1}}
\@writefile{toc}{\contentsline {subsubsection}{\numberline {{{1.2}.4}}Leveraging controls in null model}{1}}
\@writefile{toc}{\contentsline {subsubsection}{\numberline {{{1.2}.5}}Computing a p-value}{1}}
\@writefile{toc}{\contentsline {subsection}{\numberline {{1.3}}Postprocessing}{1}}
\newlabel{sec:postprocessing}{{{1.3}}{1}}
\@writefile{toc}{\contentsline {subsubsection}{\numberline {{{1.3}.1}}Bump filtering}{1}}
\@writefile{toc}{\contentsline {subsubsection}{\numberline {{{1.3}.2}}Validation}{1}}
\@writefile{toc}{\contentsline {subsubsection}{\numberline {{{1.3}.3}}Treating AnCHM samples}{1}}
\@writefile{toc}{\contentsline {subsubsection}{\numberline {{{1.3}.4}}Determining type of imprinted region}{1}}
\@writefile{toc}{\contentsline {subsubsection}{\numberline {{{1.3}.5}}Measuring accuracy}{1}}
\@writefile{toc}{\contentsline {subsubsection}{\numberline {{{1.3}.6}}Parameter search}{1}}
\@writefile{toc}{\contentsline {section}{\numberline {2}Results}{1}}
\@writefile{toc}{\contentsline {subsection}{\numberline {{2.1}}True positive rate and false discovery rate}{1}}
\@writefile{toc}{\contentsline {subsubsection}{\numberline {{{2.1}.1}}Joint search of two covariates}{1}}
\@writefile{toc}{\contentsline {subsubsection}{\numberline {{{2.1}.2}}Constraints on controls}{1}}
\@writefile{toc}{\contentsline {subsubsection}{\numberline {{{2.1}.3}}Control-based null model}{1}}
\@writefile{toc}{\contentsline {subsection}{\numberline {{2.2}}Number of bumps}{1}}
\@writefile{toc}{\contentsline {subsection}{\numberline {{2.3}}P-values}{1}}
\@writefile{toc}{\contentsline {subsection}{\numberline {{2.4}}Verification of known imprinted regions}{1}}
\@writefile{toc}{\contentsline {subsection}{\numberline {{2.5}}Candidates}{1}}
