"","#CpGs in bumps intersecting with DMR","#CpGs in DMR","Known_or_Candidate"
"GNASAS",59,60,"Known"
"SGCE/PEG10",48,55,"Known"
"MEST/MESTIT1",54,54,"Known"
"H19",41,41,"Known"
"GNAS1A",40,40,"Known"
"KCNQ1OT1",27,34,"Known"
"ZIM2/PEG3",34,34,"Known"
"DLK1/MEG3",32,33,"Known"
"FAM50B",31,31,"Known"
"DIRAS3",18,27,"Known"
"L3MBTL",23,25,"Known"
"NESP55",22,22,"Known"
"SNRPN/SNURF",18,21,"Known"
"PLAGL1/HYMAI",18,19,"Known"
"NAP1L5",13,13,"Known"
"KCNK9",8,9,"Known"
"RB1",8,8,"Known"
"ZDBF2",0,7,"Known"
"NAT15",7,7,"Known"
"GNASXL",6,6,"Known"
"DDC/GRB10",6,6,"Known"
"INPP5F",0,5,"Known"
"ZNF597",5,5,"Known"
"IGF2 DMR2",4,4,"Known"
"NDN",0,4,"Known"
"ZNF331",12,12,"Candidate"
"HM13",9,9,"Candidate"
"NHP2L1",8,8,"Candidate"
"ERLIN2",7,7,"Candidate"
"IGF1R",0,6,"Candidate"
"HTR5A",5,6,"Candidate"
"MAGEL2",5,5,"Candidate"
"WRB",4,4,"Candidate"
"PTCHD3",0,4,"Candidate"
"JAKMIP1",0,4,"Candidate"
"LOC728448",0,4,"Candidate"
